-------------------------------------------------------------------------------
Test set: RoundtripTest
-------------------------------------------------------------------------------
Tests run: 1, Failures: 0, Errors: 0, Skipped: 0, Time elapsed: 5.051 sec
